void main () {
	int valor;
	int indice;
	int[] l = {1,2,3,4,5,6};
	int[] res;
	valor = 3;
	indice = 4;
	res = insere(l,valor,indice);
	print(res);

}


int[] insere(int[] l, int x, int a)
    {
        int i;
        
        for(i=a;i<l.length;i++)
        {
            l[i+1]=l[i];
        }
        l[i]=x;
        return l;
    }