void main() {
    int a;
    int b;
    int res;
    int adsjfhasdjkhfkdsjalfhsadkjfhaskdjlhfkajsdhf;
    int bashfasduhfsadohfsadofaosdjfoasdjfoasdijfo;
    int a1;
    int b1;
    int a2;
    int b2;
    int a3;
    int b3;
    a = input(int);
    b = input(int);
    res = max(a,b,a2,b2,a3,b3,a4,b4);
    print(';');
    print(res);
}

int max(int a1, int b1, int a5, int b5, int a6, int b6, int a7, int b7){
    int res1;
    if (a1 > b1) {
        res1 = a1;
    }
    else {
        res1 = b1;
    }
    return res1;
}
